Added Parameter Fournisseur=Farnell to Part C1
Added Parameter Fournisseur=Farnell to Part C2
Added Parameter Fournisseur=Farnell to Part C3
Added Parameter Fournisseur=Farnell to Part C4
Added Parameter Fournisseur=Farnell to Part C5
Added Parameter Fournisseur=Farnell to Part C6
Added Parameter Fournisseur=Farnell to Part C7
Added Parameter Fournisseur=Farnell to Part C8
Added Parameter Fournisseur=Farnell to Part C9
Added Parameter Fournisseur=Farnell to Part C10
Added Parameter Fournisseur=Farnell to Part J1
Added Parameter Fournisseur=Farnell to Part R3
Added Parameter Fournisseur=Farnell to Part U1
Added Parameter Fournisseur=Farnell to Part Y1
Added Parameter RefFournisseur=2309029 to Part C9
Added Parameter RefFournisseur=7867687 to Part C8
Added Parameter RefFournisseur=8676786 to Part C1
Added Parameter RefFournisseur=8676786 to Part C2
Added Parameter RefFournisseur=8676786 to Part C3
Added Parameter RefFournisseur=8676786 to Part C4
Added Parameter RefFournisseur=8676786 to Part C5
Added Parameter RefFournisseur=8676786 to Part C6
Added Parameter RefFournisseur=56786786 to Part C7
